1235,0.056596983204832606
1234,0.06678556991611995
1232,0.06678556991611995
1233,0.06678556991611995
1236,0.1274459120129733
1237,0.15395053026082248
1231,0.17879821824081996
111111,0.28285164653219186
