Time,Iteration,timeDelta,Change
2017/11/20 13:44:33,1,0:00:00.025140,2
Time,Iteration,timeDelta,Change
2017/11/20 13:51:13,1,0:00:00.020005,2
2017/11/20 13:54:04,2,0:02:50.963350,1.60083154696
2017/11/20 13:56:58,3,0:02:54.056432,1.07988232694
2017/11/20 13:59:52,4,0:02:54.299169,0.734342374064
2017/11/20 14:02:47,5,0:02:54.686738,0.543836428038
2017/11/20 14:05:39,6,0:02:52.339265,0.399354134597
2017/11/20 14:08:33,7,0:02:54.220217,0.294946207377
2017/11/20 14:11:26,8,0:02:52.171419,0.217730712849
2017/11/20 14:14:20,9,0:02:54.316065,0.160837529789
2017/11/20 14:17:14,10,0:02:54.352145,0.11879012093
2017/11/20 14:20:09,11,0:02:54.875050,0.0877553503318
2017/11/20 14:23:11,12,0:03:01.864133,0.0648221755058
2017/11/20 14:27:14,13,0:04:03.492457,0.0478859525987
2017/11/20 14:31:48,14,0:04:33.144363,0.0353734962717
2017/11/20 14:34:40,15,0:02:52.537498,0.0261310010126
2017/11/20 14:37:34,16,0:02:54.210650,0.0193033071666
2017/11/20 14:40:29,17,0:02:54.900286,0.0142596153062
2017/11/20 14:43:22,18,0:02:52.899512,0.0105337912917
2017/11/20 14:46:17,19,0:02:54.958766,0.0077814525273
2017/11/20 14:49:12,20,0:02:54.967657,0.00574827473999
2017/11/20 14:52:05,21,0:02:52.711569,0.00424633026783
2017/11/20 14:54:59,22,0:02:54.455971,0.00313682590726
2017/11/20 14:57:54,23,0:02:54.561998,0.00231721795971
2017/11/20 15:00:48,24,0:02:54.555974,0.00171176218469
2017/11/20 15:03:42,25,0:02:53.379477,0.00126450344717
2017/11/20 15:06:36,26,0:02:54.189752,0.000934106721162
2017/11/20 15:09:27,27,0:02:51.319722,0.000690038258987
2017/11/20 15:12:21,28,0:02:54.174401,0.000509741039228
2017/11/20 15:15:15,29,0:02:53.840705,0.000376553214968
2017/11/20 15:18:07,30,0:02:51.765139,0.000278165177055
2017/11/20 15:21:01,31,0:02:54.149194,0.000205484746401
2017/11/20 15:23:53,32,0:02:52.203420,0.000151794474483
2017/11/20 15:26:48,33,0:02:54.683071,0.000112132825295
2017/11/20 15:29:41,34,0:02:52.486878,8.28340902718e-05
2017/11/20 15:32:35,35,0:02:54.340232,6.11907733601e-05
2017/11/20 15:35:29,36,0:02:54.571489,4.52024831814e-05
2017/11/20 15:38:24,37,0:02:54.386422,3.33917520969e-05
2017/11/20 15:41:17,38,0:02:52.696346,2.46669595372e-05
2017/11/20 15:44:11,39,0:02:54.558728,1.82218540863e-05
2017/11/20 15:47:06,40,0:02:54.526738,1.3460739832e-05
-!!!-END OF RUN-!!!-
