article_default_state.json
Article,Rank,H-Index,min
Probabilistic reasoning in intelligent systems: networks of plausible inference,1,23
"Compilers: principles, techniques, and tools",2,15
"The art of computer programming, volume 3: (2nd ed.) sorting and searching",3,24
Introduction to Reinforcement Learning,4,15
A relational model of data for large shared data banks,5,11
Conditional Random Fields: Probabilistic Models for Segmenting and Labeling Sequence Data,6,9
"The art of computer programming, volume 2 (3rd ed.): seminumerical algorithms",7,24
"The art of computer programming, volume 1 (3rd ed.): fundamental algorithms",8,24
Computational geometry: an introduction,9,1
Eigenfaces vs. Fisherfaces: Recognition Using Class Specific Linear Projection,10,5
Formal Concept Analysis: Mathematical Foundations,11,1
Term-weighting approaches in automatic text retrieval,12,2
"Network flows: theory, algorithms, and applications",13,9
Data Mining: Concepts and Techniques,14,54
Energy-Efficient Communication Protocol for Wireless Microsensor Networks,15,2
User acceptance of information technology: toward a unified view,16,6
Light field rendering,17,28
The lumigraph,18,11
Multidimensional binary search trees used for associative searching,19,11
The design and analysis of spatial data structures,20,26
A tutorial on particle filters for online nonlinear/non-GaussianBayesian tracking,21,1
Probabilistic latent semantic indexing,22,24
Wattch: a framework for architectural-level power analysis and optimizations,23,11
Personal computing: toward a conceptual model of utilization,24,2
Empirical analysis of predictive algorithms for collaborative filtering,25,4
Combinatorial optimization: algorithms and complexity,26,7
Tapestry: An Infrastructure for Fault-tolerant Wide-area Location and,27,6
DIGITALIZED SIGNATURES AND PUBLIC-KEY FUNCTIONS AS INTRACTABLE AS FACTORIZATION,28,8
A stochastic parts program and noun phrase parser for unrestricted text,29,7
Petri Net Theory and the Modeling of Systems,30,3
Models and issues in data stream systems,31,11
Distributional clustering of English words,32,17
Introduction to Evolutionary Computing,33,4
Data Structures and Algorithms,34,8
Texture Features for Browsing and Retrieval of Image Data,35,7
Tabu Search,36,14
The Sybil Attack,37,16
MediaBench: a tool for evaluating and synthesizing multimedia and communicatons systems,38,5
Generating representative Web workloads for network and server performance evaluation,39,17
Tor: the second-generation onion router,40,5
Self-organizing maps,41,14
A survey of trust and reputation systems for online service provision,42,1
Nearest neighbor queries,43,1
Reaching Agreement in the Presence of Faults,44,1
Robot Motion Planning,45,13
Introduction to Robotics: Mechanics and Control,46,4
Ethernet: distributed packet switching for local computer networks,47,2
Active shape models—their training and application,48,2
Workflow Patterns,49,1
Information technology adoption across time: a cross-sectional comparison of pre-adoption and post-adoption beliefs,50,7
Social information filtering: algorithms for automating “word of mouth”,51,1
Linearizability: a correctness condition for concurrent objects,52,7
Instance-Based Learning Algorithms,53,1
Online aggregation,54,18
"A Wavelet Tour of Signal Processing, Third Edition: The Sparse Way",55,1
The FERET Evaluation Methodology for Face-Recognition Algorithms,56,2
An introduction to kernel-based learning algorithms,57,2
The Definition of Standard ML,58,1
"Introduction to Automata Theory, Languages and Computability",59,1
Multichannel Texture Analysis Using Localized Spatial Filters,60,2
Unsupervised word sense disambiguation rivaling supervised methods,61,18
How to construct random functions,62,26
Toward principles for the design of ontologies used for knowledge sharing,63,7
Similarity Search in High Dimensions via Hashing,64,22
A fast quantum mechanical algorithm for database search,65,6
Parallel program design: a foundation,66,16
Probabilistic Visual Learning for Object Representation,67,11
Implementing remote procedure calls,68,3
"The use of MMR, diversity-based reranking for reordering documents and producing summaries",69,9
Nonlinear and Adaptive Control Design,70,2
Approximation algorithms for NP-hard problems,71,16
Pattern Recognition and Neural Networks,72,1
Multivariate data analysis (4th ed.): with readings,73,1
Querying Heterogeneous Information Sources Using Source Descriptions,74,3
MPI: The Complete Reference,75,5
A data locality optimizing algorithm,76,6
Knapsack problems: algorithms and computer implementations,77,12
Using Discriminant Eigenfeatures for Image Retrieval,78,2
Fast algorithms for finding nearest common ancestors,79,3
Ontology Matching,80,10
LIBLINEAR: A Library for Large Linear Classification,81,1
Information retrieval in folksonomies: search and ranking,82,7
Design Challenges of Technology Scaling,83,19
Eraser: a dynamic data race detector for multithreaded programs,84,5
Contextual design: defining customer-centered systems,85,6
Design of Analog CMOS Integrated Circuits,86,5
Queries and Concept Learning,87,21
"Learning to Classify Text Using Support Vector Machines: Methods, Theory and Algorithms",88,31
Public-key cryptosystems based on composite degree residuosity classes,89,13
Markov logic networks,90,11
Language-based information-flow security,91,1
The SR-tree: an index structure for high-dimensional nearest neighbor queries,92,4
LAPACK Users' guide (third ed.),93,3
Diagnosing multiple faults,94,1
The invisible computer,95,17
I/S attitudes: toward theoretical and definitional clarity,96,4
A theory of diagnosis from first principles,97,1
Social cognitive theory and individual reactions to computing technology: a longitudinal study,98,3
Weighted voting for replicated data,99,16
Theoretical Improvements in Algorithmic Efficiency for Network Flow Problems,100,4
article_hindex_avg_state.json
Article,Rank,H-Index,min
"Compilers: principles, techniques, and tools",1,15
Probabilistic reasoning in intelligent systems: networks of plausible inference,2,23
"The art of computer programming, volume 3: (2nd ed.) sorting and searching",3,24
A relational model of data for large shared data banks,4,11
"The art of computer programming, volume 2 (3rd ed.): seminumerical algorithms",5,24
"The art of computer programming, volume 1 (3rd ed.): fundamental algorithms",6,24
Conditional Random Fields: Probabilistic Models for Segmenting and Labeling Sequence Data,7,9
Introduction to Reinforcement Learning,8,15
Computational geometry: an introduction,9,1
Light field rendering,10,28
Term-weighting approaches in automatic text retrieval,11,2
The lumigraph,12,11
The design and analysis of spatial data structures,13,26
"Network flows: theory, algorithms, and applications",14,9
Eigenfaces vs. Fisherfaces: Recognition Using Class Specific Linear Projection,15,5
Formal Concept Analysis: Mathematical Foundations,16,1
Multidimensional binary search trees used for associative searching,17,11
Energy-Efficient Communication Protocol for Wireless Microsensor Networks,18,2
Data Mining: Concepts and Techniques,19,54
Wattch: a framework for architectural-level power analysis and optimizations,20,11
Tapestry: An Infrastructure for Fault-tolerant Wide-area Location and,21,6
DIGITALIZED SIGNATURES AND PUBLIC-KEY FUNCTIONS AS INTRACTABLE AS FACTORIZATION,22,8
Probabilistic latent semantic indexing,23,24
Empirical analysis of predictive algorithms for collaborative filtering,24,4
User acceptance of information technology: toward a unified view,25,6
Models and issues in data stream systems,26,11
Online aggregation,27,18
A stochastic parts program and noun phrase parser for unrestricted text,28,7
How to construct random functions,29,26
Combinatorial optimization: algorithms and complexity,30,7
MediaBench: a tool for evaluating and synthesizing multimedia and communicatons systems,31,5
A tutorial on particle filters for online nonlinear/non-GaussianBayesian tracking,32,1
Data Structures and Algorithms,33,8
The Sybil Attack,34,16
Reaching Agreement in the Presence of Faults,35,1
Distributional clustering of English words,36,17
Generating representative Web workloads for network and server performance evaluation,37,17
Linearizability: a correctness condition for concurrent objects,38,7
Texture Features for Browsing and Retrieval of Image Data,39,7
Nearest neighbor queries,40,1
Ethernet: distributed packet switching for local computer networks,41,2
Personal computing: toward a conceptual model of utilization,42,2
A data locality optimizing algorithm,43,6
Similarity Search in High Dimensions via Hashing,44,22
The Definition of Standard ML,45,1
Unsupervised word sense disambiguation rivaling supervised methods,46,18
Petri Net Theory and the Modeling of Systems,47,3
Tor: the second-generation onion router,48,5
Social information filtering: algorithms for automating “word of mouth”,49,1
Eraser: a dynamic data race detector for multithreaded programs,50,5
Parallel program design: a foundation,51,16
Tabu Search,52,14
Approximation algorithms for NP-hard problems,53,16
Querying Heterogeneous Information Sources Using Source Descriptions,54,3
Weighted voting for replicated data,55,16
Introduction to Evolutionary Computing,56,4
"Introduction to Automata Theory, Languages and Computability",57,1
"The use of MMR, diversity-based reranking for reordering documents and producing summaries",58,9
Computer-aided verification of coordinating processes: the automata-theoretic approach,59,12
Self-organizing maps,60,14
A survey of trust and reputation systems for online service provision,61,1
Design Challenges of Technology Scaling,62,19
Trading group theory for randomness,63,4
An introduction to kernel-based learning algorithms,64,2
The FERET Evaluation Methodology for Face-Recognition Algorithms,65,2
Workflow Patterns,66,1
Instance-Based Learning Algorithms,67,1
Robot Motion Planning,68,13
Acquiring the reflectance field of a human face,69,1
Implementing remote procedure calls,70,3
Active shape models—their training and application,71,2
Queries and Concept Learning,72,21
Multichannel Texture Analysis Using Localized Spatial Filters,73,2
Public-key cryptosystems based on composite degree residuosity classes,74,13
Probabilistic Visual Learning for Object Representation,75,11
Markov logic networks,76,11
A maximum-entropy-inspired parser,77,24
"Data Cube: A Relational Aggregation Operator Generalizing Group-By, Cross-Tab, and Sub-Total",78,2
A practical model for subsurface light transport,79,12
The invisible computer,80,17
"Learning to Classify Text Using Support Vector Machines: Methods, Theory and Algorithms",81,31
The SR-tree: an index structure for high-dimensional nearest neighbor queries,82,4
A fast quantum mechanical algorithm for database search,83,6
Introduction to Robotics: Mechanics and Control,84,4
Knapsack problems: algorithms and computer implementations,85,12
Software methods for improvement of cache performance on supercomputer applications,86,1
Toward principles for the design of ontologies used for knowledge sharing,87,7
Lower bounds for discrete logarithms and related problems,88,23
Language-based information-flow security,89,1
Information retrieval in folksonomies: search and ranking,90,7
Information technology adoption across time: a cross-sectional comparison of pre-adoption and post-adoption beliefs,91,7
Fast algorithms for finding nearest common ancestors,92,3
Contextual design: defining customer-centered systems,93,6
Interface automata,94,20
Hauptvortrag: Quantifier elimination for real closed fields by cylindrical algebraic decomposition,95,14
Public-key cryptosystems provably secure against chosen ciphertext attacks,96,7
Interprocedural slicing using dependence graphs,97,13
The Quadtree and Related Hierarchical Data Structures,98,26
The part-time parliament,99,29
Multivariate data analysis (4th ed.): with readings,100,1
article_hindex_min_state.json
Article,Rank,H-Index,min
"Compilers: principles, techniques, and tools",1,15
Probabilistic reasoning in intelligent systems: networks of plausible inference,2,23
"The art of computer programming, volume 3: (2nd ed.) sorting and searching",3,24
A relational model of data for large shared data banks,4,11
"The art of computer programming, volume 2 (3rd ed.): seminumerical algorithms",5,24
"The art of computer programming, volume 1 (3rd ed.): fundamental algorithms",6,24
Introduction to Reinforcement Learning,7,15
Conditional Random Fields: Probabilistic Models for Segmenting and Labeling Sequence Data,8,9
Computational geometry: an introduction,9,1
Light field rendering,10,28
Term-weighting approaches in automatic text retrieval,11,2
Formal Concept Analysis: Mathematical Foundations,12,1
"Network flows: theory, algorithms, and applications",13,9
Multidimensional binary search trees used for associative searching,14,11
The lumigraph,15,11
The design and analysis of spatial data structures,16,26
Eigenfaces vs. Fisherfaces: Recognition Using Class Specific Linear Projection,17,5
Data Mining: Concepts and Techniques,18,54
DIGITALIZED SIGNATURES AND PUBLIC-KEY FUNCTIONS AS INTRACTABLE AS FACTORIZATION,19,8
Energy-Efficient Communication Protocol for Wireless Microsensor Networks,20,2
Probabilistic latent semantic indexing,21,24
User acceptance of information technology: toward a unified view,22,6
A stochastic parts program and noun phrase parser for unrestricted text,23,7
Wattch: a framework for architectural-level power analysis and optimizations,24,11
How to construct random functions,25,26
Tapestry: An Infrastructure for Fault-tolerant Wide-area Location and,26,6
Empirical analysis of predictive algorithms for collaborative filtering,27,4
Online aggregation,28,18
Models and issues in data stream systems,29,11
Reaching Agreement in the Presence of Faults,30,1
Combinatorial optimization: algorithms and complexity,31,7
Data Structures and Algorithms,32,8
A tutorial on particle filters for online nonlinear/non-GaussianBayesian tracking,33,1
Distributional clustering of English words,34,17
Parallel program design: a foundation,35,16
MediaBench: a tool for evaluating and synthesizing multimedia and communicatons systems,36,5
Ethernet: distributed packet switching for local computer networks,37,2
Unsupervised word sense disambiguation rivaling supervised methods,38,18
The Sybil Attack,39,16
Linearizability: a correctness condition for concurrent objects,40,7
Personal computing: toward a conceptual model of utilization,41,2
Texture Features for Browsing and Retrieval of Image Data,42,7
Petri Net Theory and the Modeling of Systems,43,3
Generating representative Web workloads for network and server performance evaluation,44,17
The Definition of Standard ML,45,1
Weighted voting for replicated data,46,16
Approximation algorithms for NP-hard problems,47,16
A data locality optimizing algorithm,48,6
Tabu Search,49,14
Self-organizing maps,50,14
Similarity Search in High Dimensions via Hashing,51,22
Computer-aided verification of coordinating processes: the automata-theoretic approach,52,12
Nearest neighbor queries,53,1
Querying Heterogeneous Information Sources Using Source Descriptions,54,3
Social information filtering: algorithms for automating “word of mouth”,55,1
Trading group theory for randomness,56,4
Queries and Concept Learning,57,21
The invisible computer,58,17
Tor: the second-generation onion router,59,5
"The use of MMR, diversity-based reranking for reordering documents and producing summaries",60,9
Introduction to Evolutionary Computing,61,4
"Introduction to Automata Theory, Languages and Computability",62,1
"Learning to Classify Text Using Support Vector Machines: Methods, Theory and Algorithms",63,31
A maximum-entropy-inspired parser,64,24
Instance-Based Learning Algorithms,65,1
An introduction to kernel-based learning algorithms,66,2
Hauptvortrag: Quantifier elimination for real closed fields by cylindrical algebraic decomposition,67,14
Design Challenges of Technology Scaling,68,19
Eraser: a dynamic data race detector for multithreaded programs,69,5
Handbook of Formal Languages,70,21
Robot Motion Planning,71,13
The Quadtree and Related Hierarchical Data Structures,72,26
Workflow Patterns,73,1
Mobile Ambients,74,23
Multichannel Texture Analysis Using Localized Spatial Filters,75,2
Implementing remote procedure calls,76,3
Public-key cryptosystems based on composite degree residuosity classes,77,13
A survey of trust and reputation systems for online service provision,78,1
The FERET Evaluation Methodology for Face-Recognition Algorithms,79,2
Contextual design: defining customer-centered systems,80,6
Toward principles for the design of ontologies used for knowledge sharing,81,7
Lower bounds for discrete logarithms and related problems,82,23
Public-key cryptosystems provably secure against chosen ciphertext attacks,83,7
Active shape models—their training and application,84,2
The part-time parliament,85,29
Globus toolkit version 4: software for service-oriented systems,86,41
A theory of diagnosis from first principles,87,1
Conditional rewriting logic as a unified model of concurrency,88,23
Learning Quickly When Irrelevant Attributes Abound: A New Linear-Threshold Algorithm,89,9
Fast algorithms for finding nearest common ancestors,90,3
A fast quantum mechanical algorithm for database search,91,6
Probabilistic Visual Learning for Object Representation,92,11
First-Order Dynamic Logic,93,27
Multidimensional divide-and-conquer,94,11
Information technology adoption across time: a cross-sectional comparison of pre-adoption and post-adoption beliefs,95,7
Software methods for improvement of cache performance on supercomputer applications,96,1
Interprocedural slicing using dependence graphs,97,13
An introduction to database systems: vol. I (4th ed.),98,15
The Science of Programming,99,16
Language-based information-flow security,100,1
article_hindex_max_state.json
Article,Rank,H-Index,min
"Compilers: principles, techniques, and tools",1,15
Probabilistic reasoning in intelligent systems: networks of plausible inference,2,23
"The art of computer programming, volume 3: (2nd ed.) sorting and searching",3,24
Conditional Random Fields: Probabilistic Models for Segmenting and Labeling Sequence Data,4,9
A relational model of data for large shared data banks,5,11
"The art of computer programming, volume 2 (3rd ed.): seminumerical algorithms",6,24
"The art of computer programming, volume 1 (3rd ed.): fundamental algorithms",7,24
Introduction to Reinforcement Learning,8,15
Computational geometry: an introduction,9,1
Light field rendering,10,28
The lumigraph,11,11
Term-weighting approaches in automatic text retrieval,12,2
Eigenfaces vs. Fisherfaces: Recognition Using Class Specific Linear Projection,13,5
The design and analysis of spatial data structures,14,26
"Network flows: theory, algorithms, and applications",15,9
Formal Concept Analysis: Mathematical Foundations,16,1
Energy-Efficient Communication Protocol for Wireless Microsensor Networks,17,2
Multidimensional binary search trees used for associative searching,18,11
Data Mining: Concepts and Techniques,19,54
Wattch: a framework for architectural-level power analysis and optimizations,20,11
Tapestry: An Infrastructure for Fault-tolerant Wide-area Location and,21,6
Empirical analysis of predictive algorithms for collaborative filtering,22,4
Probabilistic latent semantic indexing,23,24
DIGITALIZED SIGNATURES AND PUBLIC-KEY FUNCTIONS AS INTRACTABLE AS FACTORIZATION,24,8
Models and issues in data stream systems,25,11
User acceptance of information technology: toward a unified view,26,6
Online aggregation,27,18
MediaBench: a tool for evaluating and synthesizing multimedia and communicatons systems,28,5
Combinatorial optimization: algorithms and complexity,29,7
A tutorial on particle filters for online nonlinear/non-GaussianBayesian tracking,30,1
A stochastic parts program and noun phrase parser for unrestricted text,31,7
The Sybil Attack,32,16
Data Structures and Algorithms,33,8
How to construct random functions,34,26
Distributional clustering of English words,35,17
Nearest neighbor queries,36,1
Reaching Agreement in the Presence of Faults,37,1
Generating representative Web workloads for network and server performance evaluation,38,17
Linearizability: a correctness condition for concurrent objects,39,7
Texture Features for Browsing and Retrieval of Image Data,40,7
Similarity Search in High Dimensions via Hashing,41,22
Ethernet: distributed packet switching for local computer networks,42,2
Personal computing: toward a conceptual model of utilization,43,2
A data locality optimizing algorithm,44,6
Eraser: a dynamic data race detector for multithreaded programs,45,5
Tor: the second-generation onion router,46,5
The Definition of Standard ML,47,1
Social information filtering: algorithms for automating “word of mouth”,48,1
Petri Net Theory and the Modeling of Systems,49,3
Introduction to Evolutionary Computing,50,4
Querying Heterogeneous Information Sources Using Source Descriptions,51,3
Unsupervised word sense disambiguation rivaling supervised methods,52,18
"The use of MMR, diversity-based reranking for reordering documents and producing summaries",53,9
Tabu Search,54,14
A survey of trust and reputation systems for online service provision,55,1
Weighted voting for replicated data,56,16
Parallel program design: a foundation,57,16
"Introduction to Automata Theory, Languages and Computability",58,1
Design Challenges of Technology Scaling,59,19
The FERET Evaluation Methodology for Face-Recognition Algorithms,60,2
Acquiring the reflectance field of a human face,61,1
Approximation algorithms for NP-hard problems,62,16
Workflow Patterns,63,1
Computer-aided verification of coordinating processes: the automata-theoretic approach,64,12
Active shape models—their training and application,65,2
An introduction to kernel-based learning algorithms,66,2
Markov logic networks,67,11
Instance-Based Learning Algorithms,68,1
Robot Motion Planning,69,13
Self-organizing maps,70,14
Multichannel Texture Analysis Using Localized Spatial Filters,71,2
Implementing remote procedure calls,72,3
Multivariate data analysis (4th ed.): with readings,73,1
"Data Cube: A Relational Aggregation Operator Generalizing Group-By, Cross-Tab, and Sub-Total",74,2
A practical model for subsurface light transport,75,12
Probabilistic Visual Learning for Object Representation,76,11
Trading group theory for randomness,77,4
Information retrieval in folksonomies: search and ranking,78,7
Public-key cryptosystems based on composite degree residuosity classes,79,13
Introduction to Robotics: Mechanics and Control,80,4
The SR-tree: an index structure for high-dimensional nearest neighbor queries,81,4
Knapsack problems: algorithms and computer implementations,82,12
Queries and Concept Learning,83,21
A fast quantum mechanical algorithm for database search,84,6
PrefixSpan: Mining Sequential Patterns by Prefix-Projected Growth,85,3
Managing energy and server resources in hosting centers,86,1
A maximum-entropy-inspired parser,87,24
"Learning to Classify Text Using Support Vector Machines: Methods, Theory and Algorithms",88,31
Information technology adoption across time: a cross-sectional comparison of pre-adoption and post-adoption beliefs,89,7
Software methods for improvement of cache performance on supercomputer applications,90,1
Toward principles for the design of ontologies used for knowledge sharing,91,7
Language-based information-flow security,92,1
Efficient context-sensitive pointer analysis for C programs,93,3
Interface automata,94,20
Lower bounds for discrete logarithms and related problems,95,23
Fast algorithms for finding nearest common ancestors,96,3
LIBLINEAR: A Library for Large Linear Classification,97,1
The invisible computer,98,17
The part-time parliament,99,29
Symbolic execution and program testing,100,5
article_author_bias_MAX.json
Article,Rank,H-Index,min
"The art of computer programming, volume 2 (3rd ed.): seminumerical algorithms",1,24
Probabilistic reasoning in intelligent systems: networks of plausible inference,2,23
"The art of computer programming, volume 1 (3rd ed.): fundamental algorithms",3,24
"Compilers: principles, techniques, and tools",4,15
A relational model of data for large shared data banks,5,11
"The art of computer programming, volume 3: (2nd ed.) sorting and searching",6,24
Data parallel algorithms,7,8
Mining the most interesting rules,8,14
Aquanet: a hypertext tool to hold your knowledge in place,9,2
An overview of COMMON LISP,10,20
Numerical solution to the time-dependent Maxwell equations in two-dimensional singular domains: The singular complement method,11,3
Practical implementation of charge recovering asymptotically zero power CMOS,12,2
A Hierarchical Adaptive Distributed System-Level Diagnosis Algorithm,13,2
SCTP: A Proposed Standard for Robust Internet Data Transport,14,1
Conditional Random Fields: Probabilistic Models for Segmenting and Labeling Sequence Data,15,9
Term-weighting approaches in automatic text retrieval,16,2
Building Effective Decision Support Systems,17,3
Filtering segmentation cuts for digit string recognition,18,1
Computational geometry: an introduction,19,1
Multivariate data analysis (4th ed.): with readings,20,1
Introduction to Reinforcement Learning,21,15
Software Reuse by Specialization of Generic Procedures through Views,22,5
The Incremental Garbage Collection of Processes,23,12
Parallel Symbolic Computing,24,1
Light field rendering,25,28
Eigenfaces vs. Fisherfaces: Recognition Using Class Specific Linear Projection,26,5
Project GROPEHaptic displays for scientific visualization,27,1
Conversion of Units of Measurement,28,5
Approximation algorithms for bin packing: a survey,29,11
"Future research in group support systems: needs, some questions and possible directions",30,19
Design spaces for link and structure versioning,31,14
The lumigraph,32,11
Personas como modelo de usuários de serviços de governo eletrônico,33,1
An Efficient One-Way Enciphering Algorithm,34,1
Walkthrough—a dynamic graphics system for simulating virtual buildings,35,21
Overcast: reliable multicasting with on overlay network,36,4
Direct manipulation techniques for 3D objects using 2D locator devices,37,12
Integrality and separability of input devices,38,1
InfoSleuth: agent-based semantic integration of information in open and dynamic environments,39,3
A type and effect system for deterministic parallel Java,40,2
An Equivalence Between Relational Database Dependencies and a Fragment of Propositional Logic,41,3
Multiprocessing compactifying garbage collection,42,20
Effects of field of view on performance with head-mounted displays,43,2
The design and analysis of spatial data structures,44,26
S-1 Common Lisp implementation,45,11
Comparing Detection Methods for Software Requirements Inspections: A Replicated Experiment,46,8
The Mythical Man-Month,47,1
Counting connected components of a semialgebraic set in subexponential time,48,2
Integration of computer security into the software engineering and computer science programs,49,2
"System response time operator productivity, and job satisfaction",50,1
Shallow binding in Lisp 1.5,51,12
ISAAC,52,1
Flaming in the electronic classroom,53,7
Self-optimisation of the energy footprint in service-oriented architectures,54,1
A user authentication scheme not requiring secrecy in the computer,55,1
Analysis of networks with dynamic topologies,56,0
The Tutte polynomial for homeomorphism classes of graphs,57,3
Applications for Parallel Symbolic Computation (panel),58,3
Archival performance of NASA GFSC digital magnetic tape,59,0
Directly visualizing spatial freedom from geometric models,60,1
On simulation methods for Vlasov-Poisson systems with particles initially asymptotically distributed,61,0
Concepts in the definition of an enterprise development process,62,10
Factors affecting the adoption of e-business: an automotive industry study,63,0
Hollow-core screw dislocations in 6H-SiC single crystals: a test of Frank's theory,64,0
Enabling the effective involvement of multiple users: methods and tools for collaborative software engineering,65,3
Volume visualization displays,66,1
Hardware Modeling Using Function Encapsulation,67,6
The Information Infrastructure and Technology Act,68,0
Bounds and techniques for linear source coding (Ph.D. Thesis abstr.),69,0
Integrated project support environments,70,0
Hydrogen sulfide plasma passivation of indium phosphide,71,0
"Software Process as a Foundation for Teaching, Learning, and Accrediting",72,2
A comprehensive and computationally efficient modeling approach for the simulation of ion implantation for the ulsi era,73,0
Survey of intelligent building concepts,74,1
Computer Networks and ISDN Systems,75,2
"Computer use among high school educators: relating teachers' ability, beliefs, and classroom use",76,0
Parsing as non-Horn deduction,77,5
A MIMO demonstration of Hydra,78,1
Location of computers and multiple files in distributed computer systems,79,0
The Share 709 System: Machine Implementation of Symbolic Programming,80,1
EDP conversion consideration,81,0
Application of jaynes' maximum entropy formalism to the reliability of complex systems: bundles of brittle elastic fibers,82,0
Discovery Systems,83,0
Computer Networks and ISDN Systems - Special issue: advanced electronic publishing,84,2
The L.0 Language and Environment for Protocol Simulation and Prototyping,85,2
Retransmission policies for multihomed transport protocols,86,2
"Homology modelling of pyrophosphosrylase, enzyme involved in chitin pathway of Moniliophthora perniciosa",87,0
Special section: exploring the outlands of the MIS discipline,88,2
Modeling and simulating optical computing architectures,89,0
Computer-assisted instruction: enhancements for language-learning applications,90,0
Windows Vista Ultimate Bible,91,0
Perspectives on software quality assurance (session QS4 addition): my perspective,92,0
Seasonal exponential smoothing with damped trends,93,1
Fifty years of microarchitecture,94,0
"Scalable (extensible, interoperable) digital video representations",95,5
A fast hybrid carry-lookahead/carry-select adder design,96,3
The Visual Expression Process: Bridging Vision and Data Visualization,97,0
"Sorting with large volume, random access, drum storage",98,1
Vocalic markers of deception and cognitive dissonance for automated emotion detection systems,99,1
"Plant management, the locus of decision making, and the information services department",100,3
article_author_bias_MIN.json
Article,Rank,H-Index,min
"The art of computer programming, volume 1 (3rd ed.): fundamental algorithms",1,24
"The art of computer programming, volume 3: (2nd ed.) sorting and searching",2,24
"The art of computer programming, volume 2 (3rd ed.): seminumerical algorithms",3,24
"Compilers: principles, techniques, and tools",4,15
A relational model of data for large shared data banks,5,11
Probabilistic reasoning in intelligent systems: networks of plausible inference,6,23
The Art of Computer Programming Volumes 1-3 Boxed Set,7,24
Literate programming,8,24
Selected Papers on Design of Algorithms,9,24
The complexity of songs,10,24
"A review of ""Structured Programming"".",11,24
Nested satisfiability,12,24
The calculation of Easter…,13,24
Two notes on notation,14,24
Big Omicron and big Omega and big Theta,15,24
"The Art of Computer Programming, Volume 4, Fascicle 3: Generating All Combinations and Partitions",16,24
The database approach to knowledge representation,17,44
Information integration using logical views,18,44
Program development by stepwise refinement,19,17
Multidimensional binary search trees used for associative searching,20,11
Ethernet: distributed packet switching for local computer networks,21,2
Light field rendering,22,28
Monitors: an operating system structuring concept.,23,20
Abstract of c.a.d. literature: Computer programming as an engineering discipline,24,20
The transputer and Occam: a personal story,25,20
The NP-completeness column: An ongoing guide,26,16
Data Structures for Traveling Salesmen (Abstract),27,16
Introduction to Reinforcement Learning,28,15
The lumigraph,29,11
Conditional Random Fields: Probabilistic Models for Segmenting and Labeling Sequence Data,30,9
The impact of robotics on computer science,31,12
The design and analysis of spatial data structures,32,26
Operating system principles,33,9
Programming semantics for multiprogrammed computations,34,2
DIGITALIZED SIGNATURES AND PUBLIC-KEY FUNCTIONS AS INTRACTABLE AS FACTORIZATION,35,8
Optimal Arrangement of Keys in a Hash Table,36,28
The “PI” (placement and interconnect) system,37,28
The invertibility of the XOR of rotations of a binary word,38,28
Permutation Polynomials Modulo 2w,39,28
Data Mining: Concepts and Techniques,40,54
A technique for software module specification with examples,41,14
A format language,42,6
"Network flows: theory, algorithms, and applications",43,9
Computational geometry: an introduction,44,1
IEEE Transactions on Pattern Analysis and Machine Intelligence,45,45
IEEE Transactions on Pattern Analysis and Machine Intelligence,46,45
Real-Time Object Measurement and Classification (Nato ASI Series (closed) / Nato ASI Subseries F,47,45
Weighted voting for replicated data,48,16
Sequential formula translation,49,4
Restoring the popularity of computer science,50,33
Segmentation and the Design of Multiprogrammed Computer Systems,51,8
The part-time parliament,52,29
Research Alerts,53,42
Universal Usability,54,42
Human values for shaping the made world,55,42
Human value and the future of technology,56,42
Dynamic queries for visual information seeking,57,42
Tragic errors: usability and electronic health records,58,42
Teaching software psychology experimentation through team projects,59,42
Creativity support tools: a tutorial overview,60,42
Socially responsible computing I: a call to action following the L.A. riots,61,42
Socially responsible computing II: first steps on the path to positive contributions,62,42
On the Length of Programs for Computing Finite Binary Sequences: statistical considerations,63,9
Human values and the future of technology: a declaration of responsibility,64,42
The profession of IT: crossing the chasm,65,23
A stochastic parts program and noun phrase parser for unrestricted text,66,7
History of LISP,67,18
Programming Irregular Parallel Applications in Cilk,68,25
Proceedings of the fourth MIT conference on Advanced research in VLSI,69,25
Area-efficient graph layouts,70,25
The Cilk++ concurrency platform,71,25
Another look at automatic text-retrieval systems,72,21
How to Build a Highly Available System Using Consensus,73,15
A predictive calculator,74,30
Making computers talk: an introduction to speech synthesis,75,30
Program organization and record keeping for dynamic storage allocation,76,4
Term-weighting approaches in automatic text retrieval,77,2
Eigenfaces vs. Fisherfaces: Recognition Using Class Specific Linear Projection,78,5
An experiment in high level language microprogramming and verification,79,33
Diverse connections,80,33
Minority-minority and minority-majority technology transfer,81,33
Recognizing individual excellence helps us all,82,33
First-Order Dynamic Logic,83,27
Data models in database management,84,11
Multiprogram scheduling: parts 1 and 2. introduction and theory,85,11
Empirical analysis of predictive algorithms for collaborative filtering,86,4
"Rescuing our families, our neighbors, and ourselves",87,33
On the Composition of Well-Structured Programs,88,17
Ubiquity symposium 'What is computation?': Editor's Introduction,89,23
Communications of the ACM,90,23
ACM President's Letter: $$? & $$!,91,23
Communications of the ACM - Special issue: multiprocessing,92,23
The ARPANET after twenty years,93,23
Swapping,94,23
Communications of the ACM,95,23
Supernetworks,96,23
The evolution of parallel processing,97,23
Computer networks,98,23
Why not innovations in computer architecture?,99,23
Communications of the ACM,100,23
article_author_bias_AVG.json
Article,Rank,H-Index,min
"The art of computer programming, volume 1 (3rd ed.): fundamental algorithms",1,24
"The art of computer programming, volume 2 (3rd ed.): seminumerical algorithms",2,24
Probabilistic reasoning in intelligent systems: networks of plausible inference,3,23
"Compilers: principles, techniques, and tools",4,15
"The art of computer programming, volume 3: (2nd ed.) sorting and searching",5,24
A relational model of data for large shared data banks,6,11
An overview of COMMON LISP,7,20
Data parallel algorithms,8,8
Conditional Random Fields: Probabilistic Models for Segmenting and Labeling Sequence Data,9,9
Computational geometry: an introduction,10,1
Software Reuse by Specialization of Generic Procedures through Views,11,5
Light field rendering,12,28
Walkthrough—a dynamic graphics system for simulating virtual buildings,13,21
Mining the most interesting rules,14,14
Introduction to Reinforcement Learning,15,15
Conversion of Units of Measurement,16,5
Design spaces for link and structure versioning,17,14
Multiprocessing compactifying garbage collection,18,20
Parallel Symbolic Computing,19,1
The lumigraph,20,11
Term-weighting approaches in automatic text retrieval,21,2
Standard-output,22,20
Parallel programming and code selection in fortress,23,20
Programming language life cycles,24,20
(*standard-output*),25,20
"Future research in group support systems: needs, some questions and possible directions",26,19
High performance Fortran: status report,27,20
A growable language,28,20
A study of storage partitioning using a mathematical model of locality,29,1
Information and Management,30,14
The design and analysis of spatial data structures,31,26
The Mythical Man-Month,32,1
Shallow binding in Lisp 1.5,33,12
An initial evaluation of a pen-based tool for creating dynamic mathematical illustrations,34,13
DSS in context,35,10
Proceedings of the Twenty-First Annual Hawaii International Conference on Applications Track,36,10
Emerging Technology: Track Introduction,37,10
On the Kantorovich Hypothesis for Newton’s Method,38,10
"IEEE P1363: A Standard for RSA, Diffie-Hellman, and Elliptic-Curve Cryptography (Abstract)",39,9
Concepts in the definition of an enterprise development process,40,10
Uniform comparison of data models using containment modeling,41,14
Modeling Performance of Parallel Programs,42,11
Understanding Parallel Program Performance Using Cause-Effect Analysis,43,11
Multidimensional binary search trees used for associative searching,44,11
On the Chor--Rivest knapsack cryptosystem,45,2
An APL interpreter written in APL,46,5
A browse/edit model for user interface management,47,4
"Three Dimensional System on Chip Technology, invited",48,8
VLSI Signal Processing Systems,49,8
"Scalable (extensible, interoperable) digital video representations",50,5
Hardware and software implications of representing scenes as data,51,5
Collaboration,52,7
Churchman's inquirers as design templates for knowledge management systems,53,1
Certification of Algorithm 37: Telescope 1,54,2
A discriminant method for automatically classifying documents,55,4
Beginnings of a theory of information handling,56,3
Character manipulation in 1620 FORTRAN II,57,3
"Clearing systems and (s, S) inventory systems with nonlinear costs and positive lead times",58,5
Epistemological relevance and statistical knowledge,59,3
Semantics for Interval Probabilities,60,3
Ada/CS An Instructional Subset of the Programming Language Ada,61,3
Data Dictionaries and Data Administration: Concepts and Practices for Data Resource Management,62,4
A systems analysis and model of driver licensing in the state of Florida,63,2
Data base standardization: a status report,64,2
Some sources of the unity in plurality of Scandinavian research on information systems development,65,5
Fake!,66,5
The Negative Two's Complement Number System,67,8
Lemke paths on simple polytopes,68,3
The maximum number of complementary facets of a simplicial polytope,69,3
A brief introduction to Forth,70,4
A functional approach to strategic planning information resources: the key roles of the IS and HR functions,71,5
On the generation of alternative explanations with implications for belief revision,72,6
Parsing as non-Horn deduction,73,5
Parsing as non-Horn deduction,74,5
Revised dependency-directed backtracking for default reasoning,75,3
Simulating a “management game” with programmed decisions,76,2
Circumstance descriptors: a method for generating plan modifications and fragmentary orders,77,3
Information systems development: principles of computer-aided software engineering,78,2
Some uses of truncated Boolean vectors in analysis,79,1
The computer-aided engineer: Prospects and risks,80,3
Generalized form of Price's theorem and its converse,81,3
ISAAC,82,1
Researching the costs of information systems,83,4
Techniques for storage allocation algorithms,84,1
Elementary indefinite integration theory for the computer,85,1
Subobject-based multiple inheritance in object-oriented progamming languages,86,2
"Formal verification of digital systems (hierarchical modeling, petri nets, verification, rule-based)",87,2
Algorithm 144: Treesort 2:,88,1
I Need a Computer...What Now? The Complete Guide for First-Time Computer Buyers,89,3
Personal student workstations: prospectus and requirements,90,2
Design considerations for distributed applications,91,1
Cryptanalysis,92,1
Computer Networks and ISDN Systems,93,2
Computer Networks and ISDN Systems - Special issue: advanced electronic publishing,94,2
Computer Networks and ISDN Systems - Special issue on local area networks,95,2
Computer Networks and ISDN Systems - Special issue on high-speed local and metropolitan area networks,96,2
Computer Networks and ISDN Systems,97,2
Computer Networks and ISDN Systems,98,2
Computer Networks: The International Journal of Computer and Telecommunications Networking,99,2
Computer Networks and ISDN Systems - Special supplement: Computer Networks for Research in Europe,100,2
