\relax 
\providecommand\hyper@newdestlabel[2]{}
\providecommand\HyperFirstAtBeginDocument{\AtBeginDocument}
\HyperFirstAtBeginDocument{\ifx\hyper@anchor\@undefined
\global\let\oldcontentsline\contentsline
\gdef\contentsline#1#2#3#4{\oldcontentsline{#1}{#2}{#3}}
\global\let\oldnewlabel\newlabel
\gdef\newlabel#1#2{\newlabelxx{#1}#2}
\gdef\newlabelxx#1#2#3#4#5#6{\oldnewlabel{#1}{{#2}{#3}}}
\AtEndDocument{\ifx\hyper@anchor\@undefined
\let\contentsline\oldcontentsline
\let\newlabel\oldnewlabel
\fi}
\fi}
\global\let\hyper@last\relax 
\gdef\HyperFirstAtBeginDocument#1{#1}
\providecommand\HyField@AuxAddToFields[1]{}
\providecommand\HyField@AuxAddToCoFields[2]{}
\citation{1}
\citation{8}
\citation{6}
\@writefile{toc}{\contentsline {section}{\numberline {1}Problem}{2}{section.1}}
\@writefile{toc}{\contentsline {paragraph}{}{2}{section*.1}}
\@writefile{toc}{\contentsline {section}{\numberline {2}Theoretical Research \& Analysis}{2}{section.2}}
\@writefile{toc}{\contentsline {paragraph}{}{2}{section*.2}}
\@writefile{toc}{\contentsline {paragraph}{}{2}{section*.3}}
\@writefile{toc}{\contentsline {section}{\numberline {3}Implementation}{2}{section.3}}
\@writefile{toc}{\contentsline {paragraph}{}{2}{section*.4}}
\@writefile{toc}{\contentsline {paragraph}{}{2}{section*.5}}
\@writefile{toc}{\contentsline {paragraph}{}{2}{section*.6}}
\@writefile{toc}{\contentsline {paragraph}{}{2}{section*.7}}
\citation{8}
\@writefile{toc}{\contentsline {paragraph}{}{3}{section*.8}}
\@writefile{toc}{\contentsline {section}{\numberline {4}Input Data}{3}{section.4}}
\@writefile{toc}{\contentsline {paragraph}{}{3}{section*.9}}
\@writefile{toc}{\contentsline {section}{\numberline {5}Expected results}{3}{section.5}}
\@writefile{toc}{\contentsline {paragraph}{}{3}{section*.10}}
\@writefile{toc}{\contentsline {section}{\numberline {6}Timeline}{3}{section.6}}
\bibcite{1}{1}
\bibcite{2}{2}
\bibcite{3}{3}
\bibcite{4}{4}
\bibcite{5}{5}
\bibcite{6}{6}
\bibcite{7}{7}
\bibcite{8}{8}
\bibcite{9}{9}
\bibcite{10}{10}
