\relax 
\providecommand\hyper@newdestlabel[2]{}
\providecommand\HyperFirstAtBeginDocument{\AtBeginDocument}
\HyperFirstAtBeginDocument{\ifx\hyper@anchor\@undefined
\global\let\oldcontentsline\contentsline
\gdef\contentsline#1#2#3#4{\oldcontentsline{#1}{#2}{#3}}
\global\let\oldnewlabel\newlabel
\gdef\newlabel#1#2{\newlabelxx{#1}#2}
\gdef\newlabelxx#1#2#3#4#5#6{\oldnewlabel{#1}{{#2}{#3}}}
\AtEndDocument{\ifx\hyper@anchor\@undefined
\let\contentsline\oldcontentsline
\let\newlabel\oldnewlabel
\fi}
\fi}
\global\let\hyper@last\relax 
\gdef\HyperFirstAtBeginDocument#1{#1}
\providecommand\HyField@AuxAddToFields[1]{}
\providecommand\HyField@AuxAddToCoFields[2]{}
\@writefile{toc}{\contentsline {section}{\numberline {1}Page Rank}{2}{section.1}}
\@writefile{toc}{\contentsline {paragraph}{}{2}{section*.1}}
\@writefile{toc}{\contentsline {paragraph}{}{2}{section*.2}}
\@writefile{toc}{\contentsline {paragraph}{}{2}{section*.3}}
\@writefile{toc}{\contentsline {paragraph}{}{2}{section*.4}}
\@writefile{toc}{\contentsline {paragraph}{}{2}{section*.5}}
\@writefile{lof}{\contentsline {figure}{\numberline {1}{\ignorespaces A figure\relax }}{2}{figure.caption.6}}
\providecommand*\caption@xref[2]{\@setref\relax\@undefined{#1}}
\newlabel{fig-prolem}{{1}{2}{A figure\relax }{figure.caption.6}{}}
\@writefile{lof}{\contentsline {figure}{\numberline {2}{\ignorespaces Another figure\relax }}{2}{figure.caption.6}}
\newlabel{fig-self-loops-sinks}{{2}{2}{Another figure\relax }{figure.caption.6}{}}
\@writefile{toc}{\contentsline {paragraph}{}{2}{section*.8}}
\citation{2}
\@writefile{lof}{\contentsline {figure}{\numberline {3}{\ignorespaces A figure\relax }}{3}{figure.caption.7}}
\newlabel{fig-self-loops}{{3}{3}{A figure\relax }{figure.caption.7}{}}
\@writefile{lof}{\contentsline {figure}{\numberline {4}{\ignorespaces Another figure\relax }}{3}{figure.caption.7}}
\newlabel{fig-dummy-node}{{4}{3}{Another figure\relax }{figure.caption.7}{}}
\@writefile{toc}{\contentsline {paragraph}{}{3}{section*.9}}
\@writefile{toc}{\contentsline {paragraph}{}{3}{section*.10}}
\@writefile{toc}{\contentsline {section}{\numberline {2}Theoretical}{3}{section.2}}
\@writefile{toc}{\contentsline {subsection}{\numberline {2.1}Analysis}{3}{subsection.2.1}}
\@writefile{toc}{\contentsline {paragraph}{}{3}{section*.11}}
\@writefile{toc}{\contentsline {paragraph}{}{3}{section*.12}}
\@writefile{toc}{\contentsline {paragraph}{}{3}{section*.13}}
\@writefile{toc}{\contentsline {paragraph}{}{3}{section*.14}}
\@writefile{toc}{\contentsline {subsection}{\numberline {2.2}Query Vector:}{4}{subsection.2.2}}
\@writefile{toc}{\contentsline {paragraph}{}{4}{section*.15}}
\@writefile{toc}{\contentsline {paragraph}{}{4}{section*.16}}
\@writefile{toc}{\contentsline {paragraph}{}{4}{section*.17}}
\@writefile{toc}{\contentsline {section}{\numberline {3}Implementation}{4}{section.3}}
\@writefile{toc}{\contentsline {subsection}{\numberline {3.1}Data Sources:}{4}{subsection.3.1}}
\@writefile{toc}{\contentsline {paragraph}{}{4}{section*.18}}
\@writefile{toc}{\contentsline {subsection}{\numberline {3.2}Theoretical design:}{4}{subsection.3.2}}
\@writefile{toc}{\contentsline {paragraph}{}{4}{section*.19}}
\@writefile{toc}{\contentsline {paragraph}{}{4}{section*.20}}
\@writefile{toc}{\contentsline {paragraph}{}{4}{section*.21}}
\@writefile{lof}{\contentsline {figure}{\numberline {5}{\ignorespaces Original Image\relax }}{5}{figure.caption.27}}
\newlabel{fig-invalid-pagerank}{{5}{5}{Original Image\relax }{figure.caption.27}{}}
\@writefile{toc}{\contentsline {paragraph}{}{5}{section*.22}}
\@writefile{toc}{\contentsline {paragraph}{}{5}{section*.23}}
\@writefile{toc}{\contentsline {paragraph}{}{5}{section*.24}}
\@writefile{toc}{\contentsline {subsection}{\numberline {3.3}Query Vectors:}{5}{subsection.3.3}}
\@writefile{toc}{\contentsline {paragraph}{}{5}{section*.25}}
\@writefile{toc}{\contentsline {paragraph}{}{5}{section*.26}}
\citation{13}
\@writefile{toc}{\contentsline {section}{\numberline {4}Analysis}{6}{section.4}}
\@writefile{toc}{\contentsline {subsection}{\numberline {4.1}H-index vs Article citation graph steady state}{6}{subsection.4.1}}
\@writefile{toc}{\contentsline {paragraph}{}{6}{section*.28}}
\@writefile{toc}{\contentsline {paragraph}{}{6}{section*.29}}
\@writefile{toc}{\contentsline {paragraph}{}{6}{section*.30}}
\@writefile{toc}{\contentsline {paragraph}{}{6}{section*.31}}
\@writefile{toc}{\contentsline {paragraph}{}{6}{section*.32}}
\@writefile{toc}{\contentsline {subsection}{\numberline {4.2}Article graph steady state}{6}{subsection.4.2}}
\@writefile{toc}{\contentsline {paragraph}{}{6}{section*.33}}
\@writefile{toc}{\contentsline {paragraph}{}{6}{section*.34}}
\@writefile{toc}{\contentsline {paragraph}{}{6}{section*.35}}
\citation{14}
\@writefile{toc}{\contentsline {subsection}{\numberline {4.3}Comparison method}{7}{subsection.4.3}}
\@writefile{toc}{\contentsline {paragraph}{}{7}{section*.36}}
\@writefile{toc}{\contentsline {paragraph}{}{7}{section*.37}}
\@writefile{toc}{\contentsline {paragraph}{}{7}{section*.38}}
\@writefile{toc}{\contentsline {paragraph}{}{7}{section*.39}}
\@writefile{toc}{\contentsline {paragraph}{}{7}{section*.40}}
\@writefile{toc}{\contentsline {section}{\numberline {5}Results}{7}{section.5}}
\@writefile{toc}{\contentsline {paragraph}{}{7}{section*.41}}
\@writefile{toc}{\contentsline {paragraph}{}{8}{section*.42}}
\@writefile{lot}{\contentsline {table}{\numberline {1}{\ignorespaces Top 10 Unions\relax }}{8}{table.caption.43}}
\newlabel{my-label}{{1}{8}{Top 10 Unions\relax }{table.caption.43}{}}
\@writefile{toc}{\contentsline {paragraph}{}{8}{section*.44}}
\@writefile{toc}{\contentsline {paragraph}{}{8}{section*.45}}
\@writefile{toc}{\contentsline {paragraph}{}{8}{section*.46}}
\@writefile{toc}{\contentsline {paragraph}{}{8}{section*.47}}
\@writefile{toc}{\contentsline {subsection}{\numberline {5.1}Conclusion:}{8}{subsection.5.1}}
\@writefile{toc}{\contentsline {paragraph}{}{8}{section*.48}}
\@writefile{toc}{\contentsline {paragraph}{}{8}{section*.49}}
\@writefile{toc}{\contentsline {paragraph}{}{9}{section*.50}}
\@writefile{toc}{\contentsline {paragraph}{}{9}{section*.51}}
\@writefile{toc}{\contentsline {paragraph}{}{9}{section*.52}}
\@writefile{toc}{\contentsline {paragraph}{}{9}{section*.53}}
\@writefile{lof}{\contentsline {figure}{\numberline {6}{\ignorespaces Union of Authors\relax }}{10}{figure.caption.54}}
\newlabel{Appendix A}{{6}{10}{Union of Authors\relax }{figure.caption.54}{}}
\@writefile{lof}{\contentsline {figure}{\numberline {7}{\ignorespaces Cosine Similarity\relax }}{11}{figure.caption.55}}
\newlabel{Appendix B}{{7}{11}{Cosine Similarity\relax }{figure.caption.55}{}}
\@writefile{lof}{\contentsline {figure}{\numberline {8}{\ignorespaces Union Articles\relax }}{11}{figure.caption.56}}
\newlabel{Appendix C}{{8}{11}{Union Articles\relax }{figure.caption.56}{}}
\@writefile{lof}{\contentsline {figure}{\numberline {9}{\ignorespaces Ranks 250 Comparison\relax }}{12}{figure.caption.57}}
\newlabel{Appendix G}{{9}{12}{Ranks 250 Comparison\relax }{figure.caption.57}{}}
\@writefile{lof}{\contentsline {figure}{\numberline {10}{\ignorespaces UnionDefault vs AuthMax\relax }}{12}{figure.caption.58}}
\newlabel{Appendix D}{{10}{12}{UnionDefault vs AuthMax\relax }{figure.caption.58}{}}
\@writefile{lof}{\contentsline {figure}{\numberline {11}{\ignorespaces union h-index max vs author rank max\relax }}{12}{figure.caption.59}}
\newlabel{Appendix E}{{11}{12}{union h-index max vs author rank max\relax }{figure.caption.59}{}}
\@writefile{lof}{\contentsline {figure}{\numberline {12}{\ignorespaces union h-index max vs h-index Min\relax }}{13}{figure.caption.60}}
\newlabel{Appendix F}{{12}{13}{union h-index max vs h-index Min\relax }{figure.caption.60}{}}
\@writefile{lof}{\contentsline {figure}{\numberline {13}{\ignorespaces union author min vs. author max\relax }}{13}{figure.caption.61}}
\newlabel{Appendix H}{{13}{13}{union author min vs. author max\relax }{figure.caption.61}{}}
\bibcite{1}{1}
\bibcite{2}{2}
\bibcite{3}{3}
\bibcite{4}{4}
\bibcite{5}{5}
\bibcite{6}{6}
\bibcite{7}{7}
\bibcite{8}{8}
\bibcite{9}{9}
\bibcite{10}{10}
\bibcite{11}{11}
\bibcite{12}{12}
\bibcite{13}{13}
\bibcite{14}{14}
\bibcite{15}{15}
